-8 -16 -24 -32 -40 -48 -56 -64 -72 560
-976 -8
-992
-8 24 -40 -32 16 -72 752
-112 -24 -72 -16 736
-16 -8 24 -16 896
-16 -24 936
-64 -24 -16 -96 -96 -96 -96 448
-960 -8 -8
-80 -168 -248 -8 -16 -16 408
-80 -160 -240 -320 -160
-240 -16 -24 -8 672
-240 -16 24 -8 -32 -24 -16 -32 -16 -24 16 -8 -8 -8 408
