992
168 -48 -8 -24 -16 688
-8 -16 112 -32 -24 -16 -8 720
992
192 -184 -24 568
80 -48 80 -8 72 -40 -16 -56 528
992
992
-8 -8 -8 944
-16 -16 -16 920
8 -16 -16 -16 904
-8 48 -64 64 -40 -48 -32 632
80 -176 -264 -8 -16 408
-800 184
